#Test of the Coulomb radial functions

#Nuclear charge is changed to 1.000000
# coord        wf_nr        wf_r.L       gf_nr       gf_r.e[0][0]  gf_r.LL
0.000000E+00 0.000000E+00 0.000000E+00 0.000000E+00 0.000000E+00 0.000000E+00
1.000000E-01 6.758392E-06 6.761076E-06 9.861696E-05 9.865164E-05 9.865164E-05
2.000000E-01 5.228909E-05 5.230066E-05 7.642130E-04 7.643481E-04 7.643481E-04
3.000000E-01 1.706598E-04 1.706872E-04 2.500935E-03 2.501226E-03 2.501226E-03
4.000000E-01 3.911671E-04 3.912174E-04 5.754147E-03 5.754639E-03 5.754639E-03
5.000000E-01 7.387114E-04 7.387920E-04 1.092014E-02 1.092086E-02 1.092086E-02
6.000000E-01 1.234151E-03 1.234269E-03 1.835481E-02 1.835579E-02 1.835579E-02
7.000000E-01 1.894632E-03 1.894793E-03 2.838150E-02 2.838276E-02 2.838276E-02
8.000000E-01 2.733902E-03 2.734113E-03 4.129805E-02 4.129958E-02 4.129958E-02
9.000000E-01 3.762600E-03 3.762868E-03 5.738311E-02 5.738492E-02 5.738492E-02
1.000000E-00 4.988533E-03 4.988862E-03 7.690199E-02 7.690407E-02 7.690407E-02
1.100000E+00 6.416931E-03 6.417326E-03 1.001119E-01 1.001142E-01 1.001142E-01
1.200000E+00 8.050687E-03 8.051152E-03 1.272668E-01 1.272694E-01 1.272694E-01
1.300000E+00 9.890583E-03 9.891122E-03 1.586220E-01 1.586248E-01 1.586248E-01
1.400000E+00 1.193550E-02 1.193612E-02 1.944382E-01 1.944412E-01 1.944412E-01
1.500000E+00 1.418262E-02 1.418331E-02 2.349854E-01 2.349886E-01 2.349886E-01
1.600000E+00 1.662759E-02 1.662836E-02 2.805471E-01 2.805504E-01 2.805504E-01
1.700000E+00 1.926472E-02 1.926557E-02 3.314234E-01 3.314268E-01 3.314268E-01
1.800000E+00 2.208711E-02 2.208805E-02 3.879347E-01 3.879381E-01 3.879381E-01
1.900000E+00 2.508685E-02 2.508787E-02 4.504253E-01 4.504288E-01 4.504288E-01
2.000000E+00 2.825508E-02 2.825618E-02 5.192669E-01 5.192704E-01 5.192704E-01
2.100000E+00 3.158219E-02 3.158337E-02 5.948618E-01 5.948652E-01 5.948652E-01
2.200000E+00 3.505790E-02 3.505916E-02 6.776467E-01 6.776501E-01 6.776501E-01
2.300000E+00 3.867138E-02 3.867272E-02 7.680965E-01 7.680997E-01 7.680997E-01
2.400000E+00 4.241135E-02 4.241276E-02 8.667277E-01 8.667307E-01 8.667307E-01
2.500000E+00 4.626615E-02 4.626763E-02 9.741024E-01 9.741053E-01 9.741053E-01
2.600000E+00 5.022388E-02 5.022543E-02 8.905201E-01 8.905227E-01 8.905227E-01
2.700000E+00 5.427243E-02 5.427404E-02 8.151314E-01 8.151338E-01 8.151338E-01
2.800000E+00 5.839956E-02 5.840124E-02 7.469472E-01 7.469494E-01 7.469494E-01
2.900000E+00 6.259299E-02 6.259472E-02 6.851298E-01 6.851319E-01 6.851319E-01
3.000000E+00 6.684042E-02 6.684221E-02 6.289648E-01 6.289667E-01 6.289667E-01
3.100000E+00 7.112965E-02 7.113148E-02 5.778384E-01 5.778401E-01 5.778401E-01
3.200000E+00 7.544853E-02 7.545041E-02 5.312201E-01 5.312218E-01 5.312218E-01
3.300000E+00 7.978512E-02 7.978704E-02 4.886490E-01 4.886505E-01 4.886505E-01
3.400000E+00 8.412763E-02 8.412958E-02 4.497219E-01 4.497233E-01 4.497233E-01
3.500000E+00 8.846453E-02 8.846651E-02 4.140847E-01 4.140861E-01 4.140861E-01
3.600000E+00 9.278452E-02 9.278652E-02 3.814252E-01 3.814265E-01 3.814265E-01
3.700000E+00 9.707662E-02 9.707864E-02 3.514664E-01 3.514677E-01 3.514677E-01
3.800000E+00 1.013301E-01 1.013322E-01 3.239622E-01 3.239634E-01 3.239634E-01
3.900000E+00 1.055348E-01 1.055368E-01 2.986926E-01 2.986937E-01 2.986937E-01
4.000000E+00 1.096805E-01 1.096825E-01 2.754607E-01 2.754618E-01 2.754618E-01
4.100000E+00 1.137576E-01 1.137597E-01 2.540896E-01 2.540906E-01 2.540906E-01
4.200000E+00 1.177571E-01 1.177591E-01 2.344200E-01 2.344210E-01 2.344210E-01
4.300000E+00 1.216699E-01 1.216720E-01 2.163079E-01 2.163089E-01 2.163089E-01
4.400000E+00 1.254878E-01 1.254898E-01 1.996232E-01 1.996241E-01 1.996241E-01
4.500000E+00 1.292026E-01 1.292046E-01 1.842476E-01 1.842485E-01 1.842485E-01
4.600000E+00 1.328068E-01 1.328087E-01 1.700738E-01 1.700748E-01 1.700748E-01
4.700000E+00 1.362932E-01 1.362951E-01 1.570042E-01 1.570051E-01 1.570051E-01
4.800000E+00 1.396550E-01 1.396569E-01 1.449495E-01 1.449505E-01 1.449505E-01
4.900000E+00 1.428860E-01 1.428878E-01 1.338286E-01 1.338295E-01 1.338295E-01
5.000000E+00 1.459801E-01 1.459819E-01 1.235670E-01 1.235679E-01 1.235679E-01
5.100000E+00 1.489320E-01 1.489337E-01 1.140967E-01 1.140977E-01 1.140977E-01
5.200000E+00 1.517364E-01 1.517381E-01 1.053554E-01 1.053563E-01 1.053563E-01
5.300000E+00 1.543889E-01 1.543905E-01 9.728586E-02 9.728683E-02 9.728683E-02
5.400000E+00 1.568850E-01 1.568865E-01 8.983567E-02 8.983665E-02 8.983665E-02
5.500000E+00 1.592210E-01 1.592224E-01 8.295660E-02 8.295761E-02 8.295761E-02
5.600000E+00 1.613933E-01 1.613947E-01 7.660437E-02 7.660540E-02 7.660540E-02
5.700000E+00 1.633989E-01 1.634003E-01 7.073822E-02 7.073928E-02 7.073928E-02
5.800000E+00 1.652352E-01 1.652364E-01 6.532065E-02 6.532175E-02 6.532175E-02
5.900000E+00 1.668996E-01 1.669007E-01 6.031713E-02 6.031828E-02 6.031828E-02
6.000000E+00 1.683903E-01 1.683914E-01 5.569586E-02 5.569706E-02 5.569706E-02
6.100000E+00 1.697056E-01 1.697066E-01 5.142752E-02 5.142877E-02 5.142877E-02
6.200000E+00 1.708443E-01 1.708451E-01 4.748509E-02 4.748640E-02 4.748640E-02
6.300000E+00 1.718053E-01 1.718060E-01 4.384364E-02 4.384502E-02 4.384502E-02
6.400000E+00 1.725880E-01 1.725887E-01 4.048018E-02 4.048162E-02 4.048162E-02
6.500000E+00 1.731921E-01 1.731927E-01 3.737349E-02 3.737503E-02 3.737503E-02
6.600000E+00 1.736175E-01 1.736180E-01 3.450399E-02 3.450562E-02 3.450562E-02
6.700000E+00 1.738645E-01 1.738648E-01 3.185361E-02 3.185535E-02 3.185535E-02
6.800000E+00 1.739335E-01 1.739338E-01 2.940566E-02 2.940750E-02 2.940750E-02
6.900000E+00 1.738254E-01 1.738256E-01 2.714472E-02 2.714667E-02 2.714667E-02
7.000000E+00 1.735412E-01 1.735412E-01 2.505655E-02 2.505866E-02 2.505866E-02
7.100000E+00 1.730821E-01 1.730821E-01 2.312801E-02 2.313026E-02 2.313026E-02
7.200000E+00 1.724497E-01 1.724495E-01 2.134696E-02 2.134935E-02 2.134935E-02
7.300000E+00 1.716456E-01 1.716454E-01 1.970215E-02 1.970474E-02 1.970474E-02
7.400000E+00 1.706719E-01 1.706715E-01 1.818324E-02 1.818602E-02 1.818602E-02
7.500000E+00 1.695305E-01 1.695300E-01 1.678063E-02 1.678359E-02 1.678359E-02
7.600000E+00 1.682239E-01 1.682233E-01 1.548548E-02 1.548869E-02 1.548869E-02
7.700000E+00 1.667545E-01 1.667538E-01 1.428959E-02 1.429305E-02 1.429305E-02
7.800000E+00 1.651249E-01 1.651241E-01 1.318541E-02 1.318911E-02 1.318911E-02
7.900000E+00 1.633380E-01 1.633371E-01 1.216596E-02 1.216998E-02 1.216998E-02
8.000000E+00 1.613967E-01 1.613957E-01 1.122477E-02 1.122911E-02 1.122911E-02
8.100000E+00 1.593042E-01 1.593030E-01 1.035588E-02 1.036051E-02 1.036051E-02
8.200000E+00 1.570635E-01 1.570622E-01 9.553766E-03 9.558822E-03 9.558822E-03
8.300000E+00 1.546781E-01 1.546767E-01 8.813341E-03 8.818806E-03 8.818806E-03
8.400000E+00 1.521513E-01 1.521499E-01 8.129890E-03 8.135734E-03 8.135734E-03
8.500000E+00 1.494868E-01 1.494852E-01 7.499064E-03 7.505449E-03 7.505449E-03
8.600000E+00 1.466881E-01 1.466864E-01 6.916839E-03 6.923745E-03 6.923745E-03
8.700000E+00 1.437590E-01 1.437572E-01 6.379496E-03 6.386882E-03 6.386882E-03
8.800000E+00 1.407032E-01 1.407013E-01 5.883603E-03 5.891690E-03 5.891690E-03
8.900000E+00 1.375246E-01 1.375226E-01 5.425987E-03 5.434739E-03 5.434739E-03
9.000000E+00 1.342270E-01 1.342249E-01 5.003709E-03 5.003775E-03 5.003775E-03
9.100000E+00 1.308145E-01 1.308124E-01 4.614069E-03 4.614131E-03 4.614131E-03
9.200000E+00 1.272911E-01 1.272888E-01 4.254560E-03 4.254618E-03 4.254618E-03
9.300000E+00 1.236607E-01 1.236583E-01 3.922868E-03 3.922924E-03 3.922924E-03
9.400000E+00 1.199275E-01 1.199250E-01 3.616859E-03 3.616910E-03 3.616910E-03
9.500000E+00 1.160955E-01 1.160929E-01 3.334557E-03 3.334606E-03 3.334606E-03
9.600000E+00 1.121688E-01 1.121661E-01 3.074140E-03 3.074186E-03 3.074186E-03
9.700000E+00 1.081515E-01 1.081488E-01 2.833924E-03 2.833967E-03 2.833967E-03
9.800000E+00 1.040479E-01 1.040451E-01 2.612353E-03 2.612393E-03 2.612393E-03
9.900000E+00 9.986190E-02 9.985901E-02 2.407991E-03 2.408028E-03 2.408028E-03
1.000000E+01 9.559773E-02 9.559476E-02 2.219510E-03 2.219546E-03 2.219546E-03
1.010000E+01 9.125947E-02 9.125643E-02 2.045686E-03 2.045720E-03 2.045720E-03
1.020000E+01 8.685121E-02 8.684809E-02 1.885388E-03 1.885419E-03 1.885419E-03
1.030000E+01 8.237702E-02 8.237383E-02 1.737569E-03 1.737599E-03 1.737599E-03
1.040000E+01 7.784095E-02 7.783769E-02 1.601266E-03 1.601294E-03 1.601294E-03
1.050000E+01 7.324701E-02 7.324369E-02 1.475588E-03 1.475614E-03 1.475614E-03
1.060000E+01 6.859920E-02 6.859581E-02 1.359712E-03 1.359736E-03 1.359736E-03
1.070000E+01 6.390145E-02 6.389800E-02 1.252879E-03 1.252902E-03 1.252902E-03
1.080000E+01 5.915769E-02 5.915418E-02 1.154389E-03 1.154410E-03 1.154410E-03
1.090000E+01 5.437177E-02 5.436821E-02 1.063594E-03 1.063614E-03 1.063614E-03
1.100000E+01 4.954753E-02 4.954392E-02 9.798966E-04 9.799153E-04 9.799153E-04
1.110000E+01 4.468873E-02 4.468507E-02 9.027466E-04 9.027641E-04 9.027641E-04
1.120000E+01 3.979910E-02 3.979539E-02 8.316349E-04 8.316513E-04 8.316513E-04
1.130000E+01 3.488231E-02 3.487855E-02 7.660920E-04 7.661073E-04 7.661073E-04
1.140000E+01 2.994197E-02 2.993816E-02 7.056846E-04 7.056990E-04 7.056990E-04
1.150000E+01 2.498162E-02 2.497778E-02 6.500131E-04 6.500265E-04 6.500265E-04
1.160000E+01 2.000478E-02 2.000090E-02 5.987085E-04 5.987210E-04 5.987210E-04
1.170000E+01 1.501486E-02 1.501095E-02 5.514305E-04 5.514422E-04 5.514422E-04
1.180000E+01 1.001523E-02 1.001129E-02 5.078650E-04 5.078759E-04 5.078759E-04
1.190000E+01 5.009202E-03 5.005228E-03 4.677223E-04 4.677326E-04 4.677326E-04
1.200000E+01 1.334859E-15 -4.001657E-06 4.307353E-04 4.307449E-04 4.307449E-04
1.210000E+01 -5.009208E-03 -5.013234E-03 3.966573E-04 3.966662E-04 3.966662E-04
1.220000E+01 -1.001533E-02 -1.001937E-02 3.652609E-04 3.652693E-04 3.652693E-04
1.230000E+01 -1.501533E-02 -1.501940E-02 3.363365E-04 3.363443E-04 3.363443E-04
1.240000E+01 -2.000626E-02 -2.001034E-02 3.096905E-04 3.096978E-04 3.096978E-04
1.250000E+01 -2.498524E-02 -2.498934E-02 2.851445E-04 2.851513E-04 2.851513E-04
1.260000E+01 -2.994946E-02 -2.995357E-02 2.625340E-04 2.625403E-04 2.625403E-04
1.270000E+01 -3.489619E-02 -3.490031E-02 2.417073E-04 2.417132E-04 2.417132E-04
1.280000E+01 -3.982276E-02 -3.982688E-02 2.225243E-04 2.225299E-04 2.225299E-04
1.290000E+01 -4.472658E-02 -4.473071E-02 2.048563E-04 2.048614E-04 2.048614E-04
1.300000E+01 -4.960515E-02 -4.960928E-02 1.885841E-04 1.885889E-04 1.885889E-04
1.310000E+01 -5.445602E-02 -5.446015E-02 1.735981E-04 1.736026E-04 1.736026E-04
1.320000E+01 -5.927684E-02 -5.928097E-02 1.597972E-04 1.598014E-04 1.598014E-04
1.330000E+01 -6.406531E-02 -6.406943E-02 1.470882E-04 1.470921E-04 1.470921E-04
1.340000E+01 -6.881921E-02 -6.882333E-02 1.353852E-04 1.353889E-04 1.353889E-04
1.350000E+01 -7.353642E-02 -7.354052E-02 1.246090E-04 1.246124E-04 1.246124E-04
1.360000E+01 -7.821486E-02 -7.821895E-02 1.146865E-04 1.146896E-04 1.146896E-04
1.370000E+01 -8.285253E-02 -8.285662E-02 1.055505E-04 1.055534E-04 1.055534E-04
1.380000E+01 -8.744754E-02 -8.745160E-02 9.713894E-05 9.714169E-05 9.714169E-05
1.390000E+01 -9.199801E-02 -9.200206E-02 8.939471E-05 8.939726E-05 8.939726E-05
1.400000E+01 -9.650220E-02 -9.650623E-02 8.226511E-05 8.226749E-05 8.226749E-05
1.410000E+01 -1.009584E-01 -1.009624E-01 7.570161E-05 7.570383E-05 7.570383E-05
1.420000E+01 -1.053649E-01 -1.053689E-01 6.965949E-05 6.966156E-05 6.966156E-05
1.430000E+01 -1.097203E-01 -1.097243E-01 6.409753E-05 6.409945E-05 6.409945E-05
1.440000E+01 -1.140230E-01 -1.140269E-01 5.897776E-05 5.897955E-05 5.897955E-05
1.450000E+01 -1.182716E-01 -1.182755E-01 5.426519E-05 5.426686E-05 5.426686E-05
1.460000E+01 -1.224647E-01 -1.224685E-01 4.992759E-05 4.992914E-05 4.992914E-05
1.470000E+01 -1.266011E-01 -1.266049E-01 4.593527E-05 4.593671E-05 4.593671E-05
1.480000E+01 -1.306795E-01 -1.306833E-01 4.226086E-05 4.226220E-05 4.226220E-05
1.490000E+01 -1.346988E-01 -1.347025E-01 3.887918E-05 3.888043E-05 3.888043E-05
1.500000E+01 -1.386579E-01 -1.386616E-01 3.576700E-05 3.576816E-05 3.576816E-05
1.510000E+01 -1.425557E-01 -1.425594E-01 3.290295E-05 3.290403E-05 3.290403E-05
1.520000E+01 -1.463914E-01 -1.463950E-01 3.026732E-05 3.026833E-05 3.026833E-05
1.530000E+01 -1.501639E-01 -1.501675E-01 2.784199E-05 2.784293E-05 2.784293E-05
1.540000E+01 -1.538725E-01 -1.538761E-01 2.561025E-05 2.561112E-05 2.561112E-05
1.550000E+01 -1.575164E-01 -1.575199E-01 2.355671E-05 2.355752E-05 2.355752E-05
1.560000E+01 -1.610948E-01 -1.610983E-01 2.166721E-05 2.166796E-05 2.166796E-05
1.570000E+01 -1.646071E-01 -1.646106E-01 1.992869E-05 1.992938E-05 1.992938E-05
1.580000E+01 -1.680527E-01 -1.680561E-01 1.832914E-05 1.832979E-05 1.832979E-05
1.590000E+01 -1.714309E-01 -1.714343E-01 1.685751E-05 1.685811E-05 1.685811E-05
1.600000E+01 -1.747414E-01 -1.747447E-01 1.550360E-05 1.550415E-05 1.550415E-05
1.610000E+01 -1.779836E-01 -1.779868E-01 1.425803E-05 1.425855E-05 1.425855E-05
1.620000E+01 -1.811571E-01 -1.811603E-01 1.311217E-05 1.311265E-05 1.311265E-05
1.630000E+01 -1.842617E-01 -1.842648E-01 1.205807E-05 1.205852E-05 1.205852E-05
1.640000E+01 -1.872969E-01 -1.873000E-01 1.108842E-05 1.108883E-05 1.108883E-05
1.650000E+01 -1.902626E-01 -1.902656E-01 1.019646E-05 1.019685E-05 1.019685E-05
1.660000E+01 -1.931585E-01 -1.931615E-01 9.376012E-06 9.376370E-06 9.376370E-06
1.670000E+01 -1.959844E-01 -1.959874E-01 8.621350E-06 8.621683E-06 8.621683E-06
1.680000E+01 -1.987403E-01 -1.987432E-01 7.927224E-06 7.927533E-06 7.927533E-06
1.690000E+01 -2.014261E-01 -2.014289E-01 7.288795E-06 7.289082E-06 7.289082E-06
1.700000E+01 -2.040417E-01 -2.040445E-01 6.701612E-06 6.701878E-06 6.701878E-06
1.710000E+01 -2.065872E-01 -2.065899E-01 6.161576E-06 6.161823E-06 6.161823E-06
1.720000E+01 -2.090625E-01 -2.090652E-01 5.664916E-06 5.665145E-06 5.665145E-06
1.730000E+01 -2.114678E-01 -2.114704E-01 5.208159E-06 5.208372E-06 5.208372E-06
1.740000E+01 -2.138032E-01 -2.138058E-01 4.788112E-06 4.788309E-06 4.788309E-06
1.750000E+01 -2.160689E-01 -2.160714E-01 4.401835E-06 4.402018E-06 4.402018E-06
1.760000E+01 -2.182650E-01 -2.182674E-01 4.046622E-06 4.046792E-06 4.046792E-06
1.770000E+01 -2.203918E-01 -2.203941E-01 3.719985E-06 3.720142E-06 3.720142E-06
1.780000E+01 -2.224494E-01 -2.224517E-01 3.419631E-06 3.419777E-06 3.419777E-06
1.790000E+01 -2.244384E-01 -2.244406E-01 3.143454E-06 3.143589E-06 3.143589E-06
1.800000E+01 -2.263588E-01 -2.263610E-01 2.889513E-06 2.889639E-06 2.889639E-06
1.810000E+01 -2.282111E-01 -2.282132E-01 2.656026E-06 2.656142E-06 2.656142E-06
1.820000E+01 -2.299957E-01 -2.299978E-01 2.441348E-06 2.441456E-06 2.441456E-06
1.830000E+01 -2.317130E-01 -2.317150E-01 2.243972E-06 2.244072E-06 2.244072E-06
1.840000E+01 -2.333633E-01 -2.333653E-01 2.062505E-06 2.062598E-06 2.062598E-06
1.850000E+01 -2.349472E-01 -2.349491E-01 1.895671E-06 1.895757E-06 1.895757E-06
1.860000E+01 -2.364652E-01 -2.364670E-01 1.742294E-06 1.742373E-06 1.742373E-06
1.870000E+01 -2.379177E-01 -2.379194E-01 1.601290E-06 1.601364E-06 1.601364E-06
1.880000E+01 -2.393052E-01 -2.393069E-01 1.471666E-06 1.471734E-06 1.471734E-06
1.890000E+01 -2.406284E-01 -2.406300E-01 1.352505E-06 1.352568E-06 1.352568E-06
1.900000E+01 -2.418877E-01 -2.418893E-01 1.242966E-06 1.243025E-06 1.243025E-06
1.910000E+01 -2.430838E-01 -2.430853E-01 1.142274E-06 1.142328E-06 1.142328E-06
1.920000E+01 -2.442173E-01 -2.442188E-01 1.049717E-06 1.049767E-06 1.049767E-06
1.930000E+01 -2.452888E-01 -2.452902E-01 9.646390E-07 9.646856E-07 9.646856E-07
1.940000E+01 -2.462989E-01 -2.463002E-01 8.864381E-07 8.864813E-07 8.864813E-07
1.950000E+01 -2.472483E-01 -2.472495E-01 8.145599E-07 8.145999E-07 8.145999E-07
1.960000E+01 -2.481376E-01 -2.481388E-01 7.484947E-07 7.485317E-07 7.485317E-07
1.970000E+01 -2.489676E-01 -2.489688E-01 6.877737E-07 6.878080E-07 6.878080E-07
1.980000E+01 -2.497389E-01 -2.497400E-01 6.319659E-07 6.319976E-07 6.319976E-07
1.990000E+01 -2.504523E-01 -2.504533E-01 5.806748E-07 5.807042E-07 5.807042E-07
2.000000E+01 -2.511085E-01 -2.511094E-01 5.335359E-07 5.335631E-07 5.335631E-07
2.010000E+01 -2.517081E-01 -2.517090E-01 4.902141E-07 4.902393E-07 4.902393E-07
2.020000E+01 -2.522520E-01 -2.522528E-01 4.504011E-07 4.504244E-07 4.504244E-07
2.030000E+01 -2.527409E-01 -2.527417E-01 4.138134E-07 4.138350E-07 4.138350E-07
2.040000E+01 -2.531755E-01 -2.531763E-01 3.801906E-07 3.802106E-07 3.802106E-07
2.050000E+01 -2.535567E-01 -2.535574E-01 3.492930E-07 3.493115E-07 3.493115E-07
2.060000E+01 -2.538852E-01 -2.538858E-01 3.209003E-07 3.209175E-07 3.209175E-07
2.070000E+01 -2.541617E-01 -2.541623E-01 2.948100E-07 2.948259E-07 2.948259E-07
2.080000E+01 -2.543871E-01 -2.543877E-01 2.708359E-07 2.708505E-07 2.708505E-07
2.090000E+01 -2.545622E-01 -2.545627E-01 2.488067E-07 2.488203E-07 2.488203E-07
2.100000E+01 -2.546878E-01 -2.546882E-01 2.285652E-07 2.285777E-07 2.285777E-07
2.110000E+01 -2.547646E-01 -2.547650E-01 2.099665E-07 2.099781E-07 2.099781E-07
2.120000E+01 -2.547936E-01 -2.547939E-01 1.928778E-07 1.928885E-07 1.928885E-07
2.130000E+01 -2.547754E-01 -2.547756E-01 1.771766E-07 1.771866E-07 1.771866E-07
2.140000E+01 -2.547109E-01 -2.547111E-01 1.627508E-07 1.627600E-07 1.627600E-07
2.150000E+01 -2.546009E-01 -2.546010E-01 1.494968E-07 1.495053E-07 1.495053E-07
2.160000E+01 -2.544463E-01 -2.544463E-01 1.373198E-07 1.373277E-07 1.373277E-07
2.170000E+01 -2.542478E-01 -2.542478E-01 1.261324E-07 1.261397E-07 1.261397E-07
2.180000E+01 -2.540063E-01 -2.540062E-01 1.158545E-07 1.158612E-07 1.158612E-07
2.190000E+01 -2.537225E-01 -2.537225E-01 1.064123E-07 1.064185E-07 1.064185E-07
2.200000E+01 -2.533974E-01 -2.533973E-01 9.773788E-08 9.774363E-08 9.774363E-08
2.210000E+01 -2.530317E-01 -2.530316E-01 8.976909E-08 8.977441E-08 8.977441E-08
2.220000E+01 -2.526263E-01 -2.526261E-01 8.244863E-08 8.245355E-08 8.245355E-08
2.230000E+01 -2.521819E-01 -2.521816E-01 7.572388E-08 7.572842E-08 7.572842E-08
2.240000E+01 -2.516993E-01 -2.516991E-01 6.954646E-08 6.955066E-08 6.955066E-08
2.250000E+01 -2.511795E-01 -2.511792E-01 6.387194E-08 6.387582E-08 6.387582E-08
2.260000E+01 -2.506231E-01 -2.506227E-01 5.865946E-08 5.866305E-08 5.866305E-08
2.270000E+01 -2.500310E-01 -2.500306E-01 5.387149E-08 5.387481E-08 5.387481E-08
2.280000E+01 -2.494041E-01 -2.494036E-01 4.947353E-08 4.947660E-08 4.947660E-08
2.290000E+01 -2.487430E-01 -2.487425E-01 4.543389E-08 4.543673E-08 4.543673E-08
2.300000E+01 -2.480486E-01 -2.480480E-01 4.172344E-08 4.172606E-08 4.172606E-08
2.310000E+01 -2.473216E-01 -2.473210E-01 3.831540E-08 3.831782E-08 3.831782E-08
2.320000E+01 -2.465629E-01 -2.465623E-01 3.518519E-08 3.518743E-08 3.518743E-08
2.330000E+01 -2.457733E-01 -2.457726E-01 3.231020E-08 3.231227E-08 3.231227E-08
2.340000E+01 -2.449534E-01 -2.449527E-01 2.966967E-08 2.967158E-08 2.967158E-08
2.350000E+01 -2.441041E-01 -2.441034E-01 2.724452E-08 2.724629E-08 2.724629E-08
2.360000E+01 -2.432262E-01 -2.432254E-01 2.501722E-08 2.501885E-08 2.501885E-08
2.370000E+01 -2.423203E-01 -2.423195E-01 2.297166E-08 2.297317E-08 2.297317E-08
2.380000E+01 -2.413873E-01 -2.413865E-01 2.109304E-08 2.109443E-08 2.109443E-08
2.390000E+01 -2.404279E-01 -2.404270E-01 1.936777E-08 1.936905E-08 1.936905E-08
2.400000E+01 -2.394428E-01 -2.394419E-01 1.778335E-08 1.778454E-08 1.778454E-08
2.410000E+01 -2.384328E-01 -2.384319E-01 1.632831E-08 1.632940E-08 1.632940E-08
2.420000E+01 -2.373986E-01 -2.373976E-01 1.499210E-08 1.499311E-08 1.499311E-08
2.430000E+01 -2.363408E-01 -2.363398E-01 1.376504E-08 1.376597E-08 1.376597E-08
2.440000E+01 -2.352603E-01 -2.352592E-01 1.263823E-08 1.263909E-08 1.263909E-08
2.450000E+01 -2.341576E-01 -2.341566E-01 1.160349E-08 1.160429E-08 1.160429E-08
2.460000E+01 -2.330336E-01 -2.330325E-01 1.065332E-08 1.065406E-08 1.065406E-08
2.470000E+01 -2.318889E-01 -2.318877E-01 9.780824E-09 9.781505E-09 9.781505E-09
2.480000E+01 -2.307241E-01 -2.307229E-01 8.979656E-09 8.980284E-09 8.980284E-09
2.490000E+01 -2.295400E-01 -2.295388E-01 8.243999E-09 8.244579E-09 8.244579E-09

#Nuclear charge is changed to 92.000000
# coord        wf_nr        wf_r.L       gf_nr       gf_r.e[0][0]  gf_r.LL
0.000000E+00 0.000000E+00 0.000000E+00 0.000000E+00 0.000000E+00 0.000000E+00
1.086957E-03 6.482422E-05 4.344695E-04 1.071923E-06 5.170738E-06 5.170738E-06
2.173913E-03 5.015393E-04 1.952599E-03 8.306663E-06 2.311893E-05 2.311893E-05
3.260870E-03 1.636912E-03 4.885765E-03 2.718408E-05 5.786628E-05 5.786628E-05
4.347826E-03 3.751943E-03 9.504684E-03 6.254508E-05 1.130133E-04 1.130133E-04
5.434783E-03 7.085471E-03 1.602239E-02 1.186971E-04 1.917674E-04 1.917674E-04
6.521739E-03 1.183756E-02 2.460152E-02 1.995088E-04 2.970301E-04 2.970301E-04
7.608696E-03 1.817267E-02 3.536065E-02 3.084946E-04 4.314741E-04 4.314741E-04
8.695652E-03 2.622266E-02 4.837979E-02 4.488918E-04 5.976107E-04 5.976107E-04
9.782609E-03 3.608959E-02 6.370502E-02 6.237295E-04 7.978465E-04 7.978465E-04
1.086957E-02 4.784833E-02 8.135268E-02 8.358912E-04 1.034535E-03 1.034535E-03
1.195652E-02 6.154904E-02 1.013130E-01 1.088173E-03 1.310022E-03 1.310022E-03
1.304348E-02 7.721947E-02 1.235534E-01 1.383335E-03 1.626686E-03 1.626686E-03
1.413043E-02 9.486714E-02 1.480214E-01 1.724152E-03 1.986978E-03 1.986978E-03
1.521739E-02 1.144813E-01 1.746471E-01 2.113458E-03 2.393454E-03 2.393454E-03
1.630435E-02 1.360349E-01 2.033459E-01 2.554190E-03 2.848809E-03 2.848809E-03
1.739130E-02 1.594862E-01 2.340203E-01 3.049425E-03 3.355912E-03 3.355912E-03
1.847826E-02 1.847807E-01 2.665622E-01 3.602428E-03 3.917833E-03 3.917833E-03
1.956522E-02 2.118521E-01 3.008542E-01 4.216681E-03 4.537875E-03 4.537875E-03
2.065217E-02 2.406246E-01 3.367717E-01 4.895927E-03 5.219605E-03 5.219605E-03
2.173913E-02 2.710132E-01 3.741840E-01 5.644205E-03 5.966885E-03 5.966885E-03
2.282609E-02 3.029257E-01 4.129559E-01 6.465889E-03 6.783903E-03 6.783903E-03
2.391304E-02 3.362636E-01 4.529486E-01 7.365725E-03 7.675203E-03 7.675203E-03
2.500000E-02 3.709229E-01 4.940209E-01 8.348875E-03 8.645723E-03 8.645723E-03
2.608696E-02 4.067953E-01 5.360303E-01 9.420953E-03 9.700826E-03 9.700826E-03
2.717391E-02 4.437693E-01 5.788337E-01 1.058807E-02 1.084634E-02 1.084634E-02
2.826087E-02 4.817305E-01 6.222882E-01 9.679567E-03 9.915200E-03 9.915200E-03
2.934783E-02 5.205628E-01 6.662520E-01 8.860124E-03 9.075682E-03 9.075682E-03
3.043478E-02 5.601489E-01 7.105847E-01 8.118991E-03 8.316731E-03 8.316731E-03
3.152174E-02 6.003708E-01 7.551481E-01 7.447064E-03 7.628973E-03 7.628973E-03
3.260870E-02 6.411108E-01 7.998068E-01 6.836574E-03 7.004398E-03 7.004398E-03
3.369565E-02 6.822516E-01 8.444281E-01 6.280852E-03 6.436122E-03 6.436122E-03
3.478261E-02 7.236769E-01 8.888831E-01 5.774132E-03 5.918189E-03 5.918189E-03
3.586957E-02 7.652720E-01 9.330466E-01 5.311402E-03 5.445420E-03 5.445420E-03
3.695652E-02 8.069239E-01 9.767973E-01 4.888281E-03 5.013286E-03 5.013286E-03
3.804348E-02 8.485219E-01 1.020018E+00 4.500921E-03 4.617810E-03 4.617810E-03
3.913043E-02 8.899579E-01 1.062597E+00 4.145926E-03 4.255485E-03 4.255485E-03
4.021739E-02 9.311262E-01 1.104427E+00 3.820287E-03 3.923203E-03 3.923203E-03
4.130435E-02 9.719246E-01 1.145404E+00 3.521328E-03 3.618202E-03 3.618202E-03
4.239130E-02 1.012254E+00 1.185430E+00 3.246658E-03 3.338018E-03 3.338018E-03
4.347826E-02 1.052018E+00 1.224414E+00 2.994138E-03 3.080445E-03 3.080445E-03
4.456522E-02 1.091125E+00 1.262265E+00 2.761843E-03 2.843504E-03 2.843504E-03
4.565217E-02 1.129486E+00 1.298903E+00 2.548043E-03 2.625416E-03 2.625416E-03
4.673913E-02 1.167017E+00 1.334250E+00 2.351173E-03 2.424573E-03 2.424573E-03
4.782609E-02 1.203637E+00 1.368232E+00 2.169817E-03 2.239523E-03 2.239523E-03
4.891304E-02 1.239268E+00 1.400782E+00 2.002691E-03 2.068952E-03 2.068952E-03
5.000000E-02 1.273838E+00 1.431837E+00 1.848628E-03 1.911664E-03 1.911664E-03
5.108696E-02 1.307278E+00 1.461341E+00 1.706567E-03 1.766575E-03 1.766575E-03
5.217391E-02 1.339524E+00 1.489240E+00 1.575538E-03 1.632696E-03 1.632696E-03
5.326087E-02 1.370514E+00 1.515487E+00 1.454659E-03 1.509125E-03 1.509125E-03
5.434783E-02 1.400192E+00 1.540038E+00 1.343120E-03 1.395040E-03 1.395040E-03
5.543478E-02 1.428505E+00 1.562855E+00 1.240182E-03 1.289688E-03 1.289688E-03
5.652174E-02 1.455405E+00 1.583904E+00 1.145167E-03 1.192380E-03 1.192380E-03
5.760870E-02 1.480846E+00 1.603155E+00 1.057455E-03 1.102485E-03 1.102485E-03
5.869565E-02 1.504788E+00 1.620583E+00 9.764746E-04 1.019424E-03 1.019424E-03
5.978261E-02 1.527194E+00 1.636167E+00 9.017022E-04 9.426656E-04 9.426656E-04
6.086957E-02 1.548030E+00 1.649890E+00 8.326562E-04 8.717228E-04 8.717228E-04
6.195652E-02 1.567268E+00 1.661738E+00 7.688937E-04 8.061467E-04 8.061467E-04
6.304348E-02 1.584880E+00 1.671703E+00 7.100070E-04 7.455248E-04 7.455248E-04
6.413043E-02 1.600845E+00 1.679778E+00 6.556210E-04 6.894775E-04 6.894775E-04
6.521739E-02 1.615143E+00 1.685961E+00 6.053898E-04 6.376553E-04 6.376553E-04
6.630435E-02 1.627759E+00 1.690253E+00 5.589948E-04 5.897360E-04 5.897360E-04
6.739130E-02 1.638681E+00 1.692659E+00 5.161423E-04 5.454228E-04 5.454228E-04
6.847826E-02 1.647898E+00 1.693186E+00 4.765613E-04 5.044422E-04 5.044422E-04
6.956522E-02 1.655406E+00 1.691845E+00 4.400019E-04 4.665416E-04 4.665416E-04
7.065217E-02 1.661200E+00 1.688647E+00 4.062336E-04 4.314880E-04 4.314880E-04
7.173913E-02 1.665280E+00 1.683611E+00 3.750434E-04 3.990666E-04 3.990666E-04
7.282609E-02 1.667649E+00 1.676752E+00 3.462349E-04 3.690787E-04 3.690787E-04
7.391304E-02 1.668312E+00 1.668094E+00 3.196267E-04 3.413411E-04 3.413411E-04
7.500000E-02 1.667275E+00 1.657658E+00 2.950513E-04 3.156844E-04 3.156844E-04
7.608696E-02 1.664549E+00 1.645469E+00 2.723538E-04 2.919522E-04 2.919522E-04
7.717391E-02 1.660145E+00 1.631556E+00 2.513915E-04 2.699999E-04 2.699999E-04
7.826087E-02 1.654079E+00 1.615946E+00 2.320321E-04 2.496940E-04 2.496940E-04
7.934783E-02 1.646367E+00 1.598672E+00 2.141539E-04 2.309109E-04 2.309109E-04
8.043478E-02 1.637027E+00 1.579764E+00 1.976439E-04 2.135364E-04 2.135364E-04
8.152174E-02 1.626080E+00 1.559259E+00 1.823982E-04 1.974650E-04 1.974650E-04
8.260870E-02 1.613547E+00 1.537190E+00 1.683204E-04 1.825990E-04 1.825990E-04
8.369565E-02 1.599453E+00 1.513594E+00 1.553216E-04 1.688482E-04 1.688482E-04
8.478261E-02 1.583823E+00 1.488510E+00 1.433197E-04 1.561290E-04 1.561290E-04
8.586957E-02 1.566683E+00 1.461977E+00 1.322387E-04 1.443643E-04 1.443643E-04
8.695652E-02 1.548063E+00 1.434034E+00 1.220084E-04 1.334825E-04 1.334825E-04
8.804348E-02 1.527992E+00 1.404722E+00 1.125639E-04 1.234176E-04 1.234176E-04
8.913043E-02 1.506500E+00 1.374083E+00 1.038453E-04 1.141085E-04 1.141085E-04
9.021739E-02 1.483620E+00 1.342160E+00 9.579719E-05 1.054985E-04 1.054985E-04
9.130435E-02 1.459384E+00 1.308995E+00 8.836837E-05 9.753537E-05 9.753537E-05
9.239130E-02 1.433827E+00 1.274632E+00 8.151157E-05 9.017064E-05 9.017064E-05
9.347826E-02 1.406983E+00 1.239114E+00 7.518304E-05 8.335952E-05 8.335952E-05
9.456522E-02 1.378888E+00 1.202486E+00 6.934234E-05 7.706056E-05 7.706056E-05
9.565217E-02 1.349577E+00 1.164793E+00 6.395221E-05 7.123540E-05 7.123540E-05
9.673913E-02 1.319089E+00 1.126079E+00 5.897812E-05 6.584855E-05 6.584855E-05
9.782609E-02 1.287460E+00 1.086390E+00 5.438815E-05 6.086716E-05 6.086716E-05
9.891304E-02 1.254729E+00 1.045769E+00 5.015293E-05 5.626086E-05 5.626086E-05
1.000000E-01 1.220933E+00 1.004262E+00 4.624522E-05 5.200151E-05 5.200151E-05
1.010870E-01 1.186112E+00 9.619139E-01 4.263987E-05 4.806311E-05 4.806311E-05
1.021739E-01 1.150304E+00 9.187695E-01 3.931368E-05 4.442159E-05 4.442159E-05
1.032609E-01 1.113548E+00 8.748731E-01 3.624518E-05 4.105466E-05 4.105466E-05
1.043478E-01 1.075885E+00 8.302693E-01 3.341456E-05 3.794172E-05 3.794172E-05
1.054348E-01 1.037353E+00 7.850020E-01 3.080352E-05 3.506371E-05 3.506371E-05
1.065217E-01 9.979921E-01 7.391149E-01 2.839514E-05 3.240296E-05 3.240296E-05
1.076087E-01 9.578417E-01 6.926515E-01 2.617381E-05 2.994317E-05 2.994317E-05
1.086957E-01 9.169412E-01 6.456546E-01 2.412511E-05 2.766923E-05 2.766923E-05
1.097826E-01 8.753301E-01 5.981667E-01 2.223572E-05 2.556716E-05 2.556716E-05
1.108696E-01 8.330475E-01 5.502298E-01 2.049334E-05 2.362403E-05 2.362403E-05
1.119565E-01 7.901326E-01 5.018854E-01 1.888662E-05 2.182790E-05 2.182790E-05
1.130435E-01 7.466242E-01 4.531744E-01 1.740507E-05 2.016769E-05 2.016769E-05
1.141304E-01 7.025607E-01 4.041370E-01 1.603900E-05 1.863316E-05 1.863316E-05
1.152174E-01 6.579804E-01 3.548129E-01 1.477948E-05 1.721485E-05 1.721485E-05
1.163043E-01 6.129212E-01 3.052411E-01 1.361825E-05 1.590401E-05 1.590401E-05
1.173913E-01 5.674206E-01 2.554601E-01 1.254770E-05 1.469252E-05 1.469252E-05
1.184783E-01 5.215157E-01 2.055074E-01 1.156080E-05 1.357289E-05 1.357289E-05
1.195652E-01 4.752432E-01 1.554200E-01 1.065105E-05 1.253820E-05 1.253820E-05
1.206522E-01 4.286393E-01 1.052341E-01 9.812463E-06 1.158203E-05 1.158203E-05
1.217391E-01 3.817396E-01 5.498516E-02 9.039510E-06 1.069844E-05 1.069844E-05
1.228261E-01 3.345794E-01 4.707862E-03 8.327087E-06 9.881968E-06 9.881968E-06
1.239130E-01 2.871932E-01 -4.556389E-02 7.670485E-06 9.127527E-06 9.127527E-06
1.250000E-01 2.396153E-01 -9.579697E-02 7.065360E-06 8.430430E-06 8.430430E-06
1.260870E-01 1.918791E-01 -1.459591E-01 6.507701E-06 7.786339E-06 7.786339E-06
1.271739E-01 1.440175E-01 -1.960187E-01 5.993809E-06 7.191243E-06 7.191243E-06
1.282609E-01 9.606274E-02 -2.459452E-01 5.520271E-06 6.641432E-06 6.641432E-06
1.293478E-01 4.804658E-02 -2.957087E-01 5.083938E-06 6.133477E-06 6.133477E-06
1.304348E-01 1.621779E-14 -3.452801E-01 4.681905E-06 5.664206E-06 5.664206E-06
1.315217E-01 -4.804664E-02 -3.946313E-01 4.311492E-06 5.230687E-06 5.230687E-06
1.326087E-01 -9.606363E-02 -4.437350E-01 3.970227E-06 4.830209E-06 4.830209E-06
1.336957E-01 -1.440220E-01 -4.925645E-01 3.655831E-06 4.460264E-06 4.460264E-06
1.347826E-01 -1.918933E-01 -5.410943E-01 3.366201E-06 4.118537E-06 4.118537E-06
1.358696E-01 -2.396500E-01 -5.892994E-01 3.099397E-06 3.802883E-06 3.802883E-06
1.369565E-01 -2.872652E-01 -6.371560E-01 2.853630E-06 3.511323E-06 3.511323E-06
1.380435E-01 -3.347125E-01 -6.846407E-01 2.627253E-06 3.242027E-06 3.242027E-06
1.391304E-01 -3.819665E-01 -7.317313E-01 2.418743E-06 2.993300E-06 2.993300E-06
1.402174E-01 -4.290023E-01 -7.784062E-01 2.226699E-06 2.763580E-06 2.763580E-06
1.413043E-01 -4.757959E-01 -8.246448E-01 2.049827E-06 2.551420E-06 2.551420E-06
1.423913E-01 -5.223238E-01 -8.704271E-01 1.886936E-06 2.355484E-06 2.355484E-06
1.434783E-01 -5.685635E-01 -9.157341E-01 1.736926E-06 2.174536E-06 2.174536E-06
1.445652E-01 -6.144928E-01 -9.605475E-01 1.598785E-06 2.007435E-06 2.007435E-06
1.456522E-01 -6.600907E-01 -1.004850E+00 1.471578E-06 1.853126E-06 1.853126E-06
1.467391E-01 -7.053365E-01 -1.048624E+00 1.354445E-06 1.710633E-06 1.710633E-06
1.478261E-01 -7.502105E-01 -1.091855E+00 1.246592E-06 1.579056E-06 1.579056E-06
1.489130E-01 -7.946936E-01 -1.134527E+00 1.147288E-06 1.457562E-06 1.457562E-06
1.500000E-01 -8.387673E-01 -1.176626E+00 1.055858E-06 1.345381E-06 1.345381E-06
1.510870E-01 -8.824140E-01 -1.218137E+00 9.716816E-07 1.241802E-06 1.241802E-06
1.521739E-01 -9.256165E-01 -1.259049E+00 8.941860E-07 1.146169E-06 1.146169E-06
1.532609E-01 -9.683587E-01 -1.299349E+00 8.228436E-07 1.057874E-06 1.057874E-06
1.543478E-01 -1.010625E+00 -1.339025E+00 7.571684E-07 9.763561E-07 9.763561E-07
1.554348E-01 -1.052400E+00 -1.378067E+00 6.967123E-07 9.010979E-07 9.010979E-07
1.565217E-01 -1.093670E+00 -1.416464E+00 6.410626E-07 8.316203E-07 8.316203E-07
1.576087E-01 -1.134421E+00 -1.454207E+00 5.898390E-07 7.674809E-07 7.674809E-07
1.586957E-01 -1.174640E+00 -1.491288E+00 5.426912E-07 7.082713E-07 7.082713E-07
1.597826E-01 -1.214315E+00 -1.527698E+00 4.992964E-07 6.536139E-07 6.536139E-07
1.608696E-01 -1.253433E+00 -1.563429E+00 4.593572E-07 6.031601E-07 6.031601E-07
1.619565E-01 -1.291985E+00 -1.598475E+00 4.225998E-07 5.565878E-07 5.565878E-07
1.630435E-01 -1.329960E+00 -1.632830E+00 3.887717E-07 5.135995E-07 5.135995E-07
1.641304E-01 -1.367346E+00 -1.666488E+00 3.576407E-07 4.739205E-07 4.739205E-07
1.652174E-01 -1.404137E+00 -1.699444E+00 3.289926E-07 4.372968E-07 4.372968E-07
1.663043E-01 -1.440322E+00 -1.731693E+00 3.026304E-07 4.034942E-07 4.034942E-07
1.673913E-01 -1.475893E+00 -1.763232E+00 2.783723E-07 3.722960E-07 3.722960E-07
1.684783E-01 -1.510844E+00 -1.794056E+00 2.560512E-07 3.435024E-07 3.435024E-07
1.695652E-01 -1.545167E+00 -1.824164E+00 2.355131E-07 3.169286E-07 3.169286E-07
1.706522E-01 -1.578856E+00 -1.853552E+00 2.166162E-07 2.924042E-07 2.924042E-07
1.717391E-01 -1.611905E+00 -1.882220E+00 1.992298E-07 2.697715E-07 2.697715E-07
1.728261E-01 -1.644308E+00 -1.910165E+00 1.832338E-07 2.488853E-07 2.488853E-07
1.739130E-01 -1.676061E+00 -1.937386E+00 1.685173E-07 2.296111E-07 2.296111E-07
1.750000E-01 -1.707159E+00 -1.963884E+00 1.549786E-07 2.118251E-07 2.118251E-07
1.760870E-01 -1.737598E+00 -1.989658E+00 1.425236E-07 1.954126E-07 1.954126E-07
1.771739E-01 -1.767376E+00 -2.014709E+00 1.310660E-07 1.802680E-07 1.802680E-07
1.782609E-01 -1.796489E+00 -2.039037E+00 1.205263E-07 1.662936E-07 1.662936E-07
1.793478E-01 -1.824935E+00 -2.062644E+00 1.108311E-07 1.533994E-07 1.533994E-07
1.804348E-01 -1.852711E+00 -2.085532E+00 1.019132E-07 1.415020E-07 1.415020E-07
1.815217E-01 -1.879817E+00 -2.107703E+00 9.371033E-08 1.305247E-07 1.305247E-07
1.826087E-01 -1.906250E+00 -2.129158E+00 8.616548E-08 1.203966E-07 1.203966E-07
1.836957E-01 -1.932011E+00 -2.149901E+00 7.922604E-08 1.110521E-07 1.110521E-07
1.847826E-01 -1.957100E+00 -2.169935E+00 7.284361E-08 1.024309E-07 1.024309E-07
1.858696E-01 -1.981515E+00 -2.189263E+00 6.697365E-08 9.447703E-08 9.447703E-08
1.869565E-01 -2.005257E+00 -2.207890E+00 6.157517E-08 8.713911E-08 8.713911E-08
1.880435E-01 -2.028328E+00 -2.225818E+00 5.661042E-08 8.036955E-08 8.036955E-08
1.891304E-01 -2.050729E+00 -2.243054E+00 5.204470E-08 7.412447E-08 7.412447E-08
1.902174E-01 -2.072460E+00 -2.259600E+00 4.784603E-08 6.836335E-08 6.836335E-08
1.913043E-01 -2.093524E+00 -2.275463E+00 4.398503E-08 6.304879E-08 6.304879E-08
1.923913E-01 -2.113923E+00 -2.290647E+00 4.043462E-08 5.814629E-08 5.814629E-08
1.934783E-01 -2.133660E+00 -2.305158E+00 3.716990E-08 5.362400E-08 5.362400E-08
1.945652E-01 -2.152737E+00 -2.319001E+00 3.416797E-08 4.945250E-08 4.945250E-08
1.956522E-01 -2.171157E+00 -2.332183E+00 3.140775E-08 4.560467E-08 4.560467E-08
1.967391E-01 -2.188924E+00 -2.344709E+00 2.886984E-08 4.205546E-08 4.205546E-08
1.978261E-01 -2.206041E+00 -2.356586E+00 2.653640E-08 3.878177E-08 3.878177E-08
1.989130E-01 -2.222513E+00 -2.367820E+00 2.439100E-08 3.576227E-08 3.576227E-08
2.000000E-01 -2.238342E+00 -2.378419E+00 2.241854E-08 3.297728E-08 3.297728E-08
2.010870E-01 -2.253535E+00 -2.388388E+00 2.060512E-08 3.040862E-08 3.040862E-08
2.021739E-01 -2.268094E+00 -2.397735E+00 1.893797E-08 2.803955E-08 2.803955E-08
2.032609E-01 -2.282026E+00 -2.406468E+00 1.740533E-08 2.585460E-08 2.585460E-08
2.043478E-01 -2.295335E+00 -2.414593E+00 1.599637E-08 2.383949E-08 2.383949E-08
2.054348E-01 -2.308026E+00 -2.422118E+00 1.470114E-08 2.198107E-08 2.198107E-08
2.065217E-01 -2.320106E+00 -2.429050E+00 1.351050E-08 2.026717E-08 2.026717E-08
2.076087E-01 -2.331578E+00 -2.435399E+00 1.241602E-08 1.868659E-08 1.868659E-08
2.086957E-01 -2.342450E+00 -2.441170E+00 1.140996E-08 1.722899E-08 1.722899E-08
2.097826E-01 -2.352727E+00 -2.446372E+00 1.048521E-08 1.588482E-08 1.588482E-08
2.108696E-01 -2.362416E+00 -2.451014E+00 9.635197E-09 1.464528E-08 1.464528E-08
2.119565E-01 -2.371522E+00 -2.455103E+00 8.853912E-09 1.350224E-08 1.350224E-08
2.130435E-01 -2.380052E+00 -2.458648E+00 8.135812E-09 1.244821E-08 1.244821E-08
2.141304E-01 -2.388013E+00 -2.461657E+00 7.475801E-09 1.147627E-08 1.147627E-08
2.152174E-01 -2.395412E+00 -2.464138E+00 6.869194E-09 1.058005E-08 1.058005E-08
2.163043E-01 -2.402254E+00 -2.466099E+00 6.311682E-09 9.753667E-09 9.753667E-09
2.173913E-01 -2.408548E+00 -2.467550E+00 5.799303E-09 8.991687E-09 8.991687E-09
2.184783E-01 -2.414299E+00 -2.468498E+00 5.328414E-09 8.289105E-09 8.289105E-09
2.195652E-01 -2.419516E+00 -2.468953E+00 4.895664E-09 7.641301E-09 7.641301E-09
2.206522E-01 -2.424205E+00 -2.468923E+00 4.497972E-09 7.044014E-09 7.044014E-09
2.217391E-01 -2.428374E+00 -2.468416E+00 4.132507E-09 6.493316E-09 6.493316E-09
2.228261E-01 -2.432030E+00 -2.467441E+00 3.796663E-09 5.985579E-09 5.985579E-09
2.239130E-01 -2.435181E+00 -2.466007E+00 3.488047E-09 5.517461E-09 5.517461E-09
2.250000E-01 -2.437833E+00 -2.464122E+00 3.204457E-09 5.085876E-09 5.085876E-09
2.260870E-01 -2.439996E+00 -2.461795E+00 2.943868E-09 4.687981E-09 4.687981E-09
2.271739E-01 -2.441675E+00 -2.459035E+00 2.704421E-09 4.321152E-09 4.321152E-09
2.282609E-01 -2.442880E+00 -2.455851E+00 2.484404E-09 3.982968E-09 3.982968E-09
2.293478E-01 -2.443617E+00 -2.452250E+00 2.282245E-09 3.671197E-09 3.671197E-09
2.304348E-01 -2.443894E+00 -2.448242E+00 2.096497E-09 3.383782E-09 3.383782E-09
2.315217E-01 -2.443719E+00 -2.443836E+00 1.925833E-09 3.118823E-09 3.118823E-09
2.326087E-01 -2.443101E+00 -2.439039E+00 1.769030E-09 2.874570E-09 2.874570E-09
2.336957E-01 -2.442046E+00 -2.433861E+00 1.624965E-09 2.649408E-09 2.649408E-09
2.347826E-01 -2.440563E+00 -2.428310E+00 1.492606E-09 2.441849E-09 2.441849E-09
2.358696E-01 -2.438659E+00 -2.422394E+00 1.371005E-09 2.250519E-09 2.250519E-09
2.369565E-01 -2.436342E+00 -2.416122E+00 1.259288E-09 2.074151E-09 2.074151E-09
2.380435E-01 -2.433621E+00 -2.409503E+00 1.156655E-09 1.911579E-09 1.911579E-09
2.391304E-01 -2.430503E+00 -2.402544E+00 1.062368E-09 1.761725E-09 1.761725E-09
2.402174E-01 -2.426995E+00 -2.395254E+00 9.757510E-10 1.623597E-09 1.623597E-09
2.413043E-01 -2.423106E+00 -2.387642E+00 8.961808E-10 1.496278E-09 1.496278E-09
2.423913E-01 -2.418843E+00 -2.379715E+00 8.230856E-10 1.378925E-09 1.378925E-09
2.434783E-01 -2.414215E+00 -2.371482E+00 7.559398E-10 1.270759E-09 1.270759E-09
2.445652E-01 -2.409229E+00 -2.362950E+00 6.942602E-10 1.171062E-09 1.171062E-09
2.456522E-01 -2.403893E+00 -2.354128E+00 6.376028E-10 1.079173E-09 1.079173E-09
2.467391E-01 -2.398214E+00 -2.345024E+00 5.855597E-10 9.944806E-10 9.944806E-10
2.478261E-01 -2.392200E+00 -2.335645E+00 5.377558E-10 9.164233E-10 9.164233E-10
2.489130E-01 -2.385859E+00 -2.326000E+00 4.938467E-10 8.444819E-10 8.444819E-10
2.500000E-01 -2.379198E+00 -2.316095E+00 4.535156E-10 7.781782E-10 7.781782E-10
2.510870E-01 -2.372226E+00 -2.305940E+00 4.164718E-10 7.170711E-10 7.170711E-10
2.521739E-01 -2.364948E+00 -2.295541E+00 3.824477E-10 6.607542E-10 6.607542E-10
2.532609E-01 -2.357374E+00 -2.284906E+00 3.511979E-10 6.088527E-10 6.088527E-10
2.543478E-01 -2.349511E+00 -2.274042E+00 3.224965E-10 5.610210E-10 5.610210E-10
2.554348E-01 -2.341365E+00 -2.262956E+00 2.961361E-10 5.169406E-10 5.169406E-10
2.565217E-01 -2.332944E+00 -2.251657E+00 2.719263E-10 4.763178E-10 4.763178E-10
2.576087E-01 -2.324255E+00 -2.240151E+00 2.496920E-10 4.388820E-10 4.388820E-10
2.586957E-01 -2.315306E+00 -2.228444E+00 2.292722E-10 4.043835E-10 4.043835E-10
2.597826E-01 -2.306104E+00 -2.216545E+00 2.105192E-10 3.725923E-10 3.725923E-10
2.608696E-01 -2.296655E+00 -2.204460E+00 1.932973E-10 3.432963E-10 3.432963E-10
2.619565E-01 -2.286967E+00 -2.192196E+00 1.774816E-10 3.163001E-10 3.163001E-10
2.630435E-01 -2.277047E+00 -2.179760E+00 1.629576E-10 2.914233E-10 2.914233E-10
2.641304E-01 -2.266901E+00 -2.167157E+00 1.496200E-10 2.685000E-10 2.685000E-10
2.652174E-01 -2.256537E+00 -2.154396E+00 1.373720E-10 2.473769E-10 2.473769E-10
2.663043E-01 -2.245961E+00 -2.141482E+00 1.261249E-10 2.279130E-10 2.279130E-10
2.673913E-01 -2.235180E+00 -2.128421E+00 1.157970E-10 2.099781E-10 2.099781E-10
2.684783E-01 -2.224200E+00 -2.115220E+00 1.063133E-10 1.934523E-10 1.934523E-10
2.695652E-01 -2.213028E+00 -2.101885E+00 9.760496E-11 1.782252E-10 1.782252E-10
2.706522E-01 -2.201670E+00 -2.088423E+00 8.960868E-11 1.641947E-10 1.641947E-10
2.717391E-01 -2.190133E+00 -2.074839E+00 8.226637E-11 1.512671E-10 1.512671E-10
